0	quest:id	int
16	quest:sortname	string
32	quest:displayname	string
48	quest:autodisable	boolean
64	quest:type	int
80	quest:members	boolean
96	quest:difficulty	int
112	quest:length	int
128	quest:location	int
144	quest:year	int,int,int
160	quest:storyline	int
176	quest:storyindex	int
192	quest:12	boolean,string
208	quest:mapcoord	coord
224	quest:14	npc
240	quest:15	loc
256	quest:mapicon	mapelement
288	quest:statusprogress	int
304	quest:statuscomplete	int
336	quest:mainquest	dbrow
352	quest:subquests	boolean
368	quest:statreq	stat,int
384	quest:statrec	stat,int
400	quest:questreq	dbrow
416	quest:pointsreq	int
432	quest:comlevelreq	int
448	quest:comlevelrec	int
496	quest:31	dbrow
528	quest:33	int
544	quest:34	int
592	quest:cr_desc	string
8192	dbtable_2:0	string
8208	dbtable_2:1	graphic,int,int
8224	dbtable_2:2	int,int
8240	dbtable_2:3	component
12320	dbtable_3:2	dbrow
12400	dbtable_3:7	dbrow
16400	dbtable_4:1	int
16416	dbtable_4:2	string
16432	dbtable_4:3	dbrow
16448	dbtable_4:4	dbrow
20496	dbtable_5:1	int
20512	dbtable_5:2	dbrow
24592	dbtable_6:1	int
24608	dbtable_6:2	string
24624	dbtable_6:3	dbrow
24640	dbtable_6:4	dbrow
28688	dbtable_7:1	int
28704	dbtable_7:2	string
28720	dbtable_7:3	dbrow
28752	dbtable_7:5	dbrow
32784	dbtable_8:1	int
32800	dbtable_8:2	string
32816	dbtable_8:3	dbrow
32848	dbtable_8:5	dbrow
32864	dbtable_8:6	string
32880	dbtable_8:7	dbrow
32896	dbtable_8:8	loc
32912	dbtable_8:9	coord
36880	dbtable_9:1	int
36896	dbtable_9:2	string
36912	dbtable_9:3	dbrow
36928	dbtable_9:4	int
36944	dbtable_9:5	string
36960	dbtable_9:6	dbrow
36976	dbtable_9:7	loc
36992	dbtable_9:8	coord
37008	dbtable_9:9	dbrow
40976	dbtable_10:1	int
41008	dbtable_10:3	int
41024	dbtable_10:4	int,int,int,int
41040	dbtable_10:5	dbrow
45072	dbtable_11:1	int
45088	dbtable_11:2	string
45104	dbtable_11:3	dbrow
45120	dbtable_11:4	dbrow
49168	dbtable_12:1	int
49184	dbtable_12:2	dbrow
53264	dbtable_13:1	int
53280	dbtable_13:2	dbrow
53312	dbtable_13:4	dbrow
57360	dbtable_14:1	int
57376	dbtable_14:2	string
57392	dbtable_14:3	dbrow
57408	dbtable_14:4	dbrow
61440	dbtable_15:0	npc
61456	dbtable_15:1	npc
61472	dbtable_15:2	coord
61488	dbtable_15:3	string
65536	dbtable_16:0	loc
65552	dbtable_16:1	loc
65568	dbtable_16:2	coord
65584	dbtable_16:3	string
69632	dbtable_17:0	coord
69648	dbtable_17:1	coord
69664	dbtable_17:2	string
73728	dbtable_18:0	coord
73744	dbtable_18:1	string
73760	dbtable_18:2	string
77824	dbtable_19:0	loc
77840	dbtable_19:1	coord
77856	dbtable_19:2	npc
77872	dbtable_19:3	obj
77888	dbtable_19:4	coord
77936	dbtable_19:7	string
81920	dbtable_20:0	npc
81936	dbtable_20:1	coord
81952	dbtable_20:2	string
86016	dbtable_21:0	string
90112	dbtable_22:0	string
94208	dbtable_23:0	string
98304	dbtable_24:0	stat
98320	dbtable_24:1	int
102400	dbtable_25:0	string,int
106496	dbtable_26:0	string
110592	dbtable_27:0	string
114704	dbtable_28:1	obj
114720	dbtable_28:2	obj
114736	dbtable_28:3	obj
114752	dbtable_28:4	obj
114768	dbtable_28:5	obj
114784	dbtable_28:6	obj
114800	dbtable_28:7	obj
114816	dbtable_28:8	obj
114832	dbtable_28:9	obj
114848	dbtable_28:10	obj
114864	dbtable_28:11	obj
114880	dbtable_28:12	int
114896	dbtable_28:13	int
114912	dbtable_28:14	int
114928	dbtable_28:15	int
114944	dbtable_28:16	int
114960	dbtable_28:17	int
114976	dbtable_28:18	int
114992	dbtable_28:19	int
115008	dbtable_28:20	int
115024	dbtable_28:21	int
115040	dbtable_28:22	int
115056	dbtable_28:23	int
122880	dbtable_30:0	string,string,string
126976	dbtable_31:0	string,string,string
131072	dbtable_32:0	graphic,int,int,int,string,string,string
135168	dbtable_33:0	graphic,string,int
139264	dbtable_34:0	int
139280	dbtable_34:1	int
139296	dbtable_34:2	namedobj
139312	dbtable_34:3	string
139328	dbtable_34:4	string
139344	dbtable_34:5	string
143392	dbtable_35:2	int
143408	dbtable_35:3	dbrow
143424	dbtable_35:4	boolean
147456	dbtable_36:0	string
147472	dbtable_36:1	graphic
151552	dbtable_37:0	string
151600	dbtable_37:3	model
155648	dbtable_38:0	string
155696	dbtable_38:3	model
159744	dbtable_39:0	string
159760	dbtable_39:1	inv
159776	dbtable_39:2	dbrow
159792	dbtable_39:3	enum
159824	dbtable_39:5	dbrow
159840	dbtable_39:6	int
159856	dbtable_39:7	int
159872	dbtable_39:8	int
159888	dbtable_39:9	dbrow
159904	dbtable_39:10	string
159920	dbtable_39:11	string
159936	dbtable_39:12	string
159952	dbtable_39:13	string
159968	dbtable_39:14	string
163840	dbtable_40:0	namedobj
163904	dbtable_40:4	int
163920	dbtable_40:5	dbrow,int
163936	dbtable_40:6	int
163952	dbtable_40:7	int
163968	dbtable_40:8	int
163984	dbtable_40:9	int
164000	dbtable_40:10	int
164016	dbtable_40:11	int
164032	dbtable_40:12	int
164048	dbtable_40:13	boolean
164064	dbtable_40:14	boolean
164096	dbtable_40:16	boolean
167936	dbtable_41:0	namedobj
167952	dbtable_41:1	string
167968	dbtable_41:2	string
167984	dbtable_41:3	graphic,graphic
180224	dbtable_44:0	string
180240	dbtable_44:1	string
180256	dbtable_44:2	string
180272	dbtable_44:3	int
180288	dbtable_44:4	midi
180304	dbtable_44:5	int,int
180320	dbtable_44:6	int
180336	dbtable_44:7	boolean
180352	dbtable_44:8	boolean
180368	dbtable_44:9	int
180384	dbtable_44:10	dbrow
249856	dbtable_61:0	dbrow
249872	dbtable_61:1	int
249888	dbtable_61:2	int,int
249904	dbtable_61:3	inv,namedobj,int
249920	dbtable_61:4	dbrow
249936	dbtable_61:5	stat,int
249952	dbtable_61:6	int
249968	dbtable_61:7	int
253952	dbtable_62:0	string
253968	dbtable_62:1	int,string,graphic
253984	dbtable_62:2	int
254000	dbtable_62:3	int
254016	dbtable_62:4	int
262144	dbtable_64:0	int
262160	dbtable_64:1	string
262176	dbtable_64:2	coord
262192	dbtable_64:3	model
262208	dbtable_64:4	int
262224	dbtable_64:5	int
262240	dbtable_64:6	boolean
266240	dbtable_65:0	string
266288	dbtable_65:3	model
266304	dbtable_65:4	model
266320	dbtable_65:5	model
266336	dbtable_65:6	model
270336	dbtable_66:0	string
270384	dbtable_66:3	model
270400	dbtable_66:4	model
274432	dbtable_67:0	string
274480	dbtable_67:3	model
274496	dbtable_67:4	model
278528	dbtable_68:0	string
278576	dbtable_68:3	model
278592	dbtable_68:4	model
282624	dbtable_69:0	string
282672	dbtable_69:3	model
282688	dbtable_69:4	model
294912	dbtable_72:0	int
294928	dbtable_72:1	string
294960	dbtable_72:3	component
311296	dbtable_76:0	int
311312	dbtable_76:1	string
311328	dbtable_76:2	component
311344	dbtable_76:3	component
315392	dbtable_77:0	int
315408	dbtable_77:1	component
315424	dbtable_77:2	component
315440	dbtable_77:3	component
315456	dbtable_77:4	component
319488	dbtable_78:0	int
319504	dbtable_78:1	int,string,string,graphic
323584	dbtable_79:0	string
323600	dbtable_79:1	int
323616	dbtable_79:2	graphic
327680	dbtable_80:0	varp
327696	dbtable_80:1	string
327712	dbtable_80:2	graphic
331776	dbtable_81:0	string
331792	dbtable_81:1	graphic
331808	dbtable_81:2	varp
335872	dbtable_82:0	int
335888	dbtable_82:1	string
335904	dbtable_82:2	graphic
335920	dbtable_82:3	component
335936	dbtable_82:4	graphic
335952	dbtable_82:5	graphic
335968	dbtable_82:6	graphic
335984	dbtable_82:7	graphic
336000	dbtable_82:8	graphic
336016	dbtable_82:9	enum
336032	dbtable_82:10	struct
336048	dbtable_82:11	coord
339968	dbtable_83:0	string
339984	dbtable_83:1	string,obj
339985	dbtable_83:1:0	string
339986	dbtable_83:1:1	obj
344080	dbtable_84:1	int
344128	dbtable_84:4	int
344144	dbtable_84:5	int
344192	dbtable_84:8	int
344224	dbtable_84:10	string
344257	dbtable_84:12:0	npc
348160	dbtable_85:0	int
348176	dbtable_85:1	namedobj
348192	dbtable_85:2	namedobj
348208	dbtable_85:3	int
348224	dbtable_85:4	struct
348240	dbtable_85:5	string
348256	dbtable_85:6	int
348272	dbtable_85:7	int
348288	dbtable_85:8	string
348304	dbtable_85:9	string
