0	dbrow_0
1	dbrow_1
3	dbrow_3
4	dbrow_4
5	dbrow_5
6	dbrow_6
7	dbrow_7
8	dbrow_8
9	dbrow_9
10	dbrow_10
11	dbrow_11
12	dbrow_12
13	dbrow_13
14	dbrow_14
15	dbrow_15
16	dbrow_16
17	dbrow_17
18	dbrow_18
19	dbrow_19
20	dbrow_20
21	dbrow_21
22	dbrow_22
23	dbrow_23
24	dbrow_24
25	dbrow_25
26	dbrow_26
27	dbrow_27
28	dbrow_28
29	dbrow_29
30	dbrow_30
31	dbrow_31
32	dbrow_32
33	dbrow_33
34	dbrow_34
35	dbrow_35
36	dbrow_36
37	dbrow_37
38	dbrow_38
39	dbrow_39
40	dbrow_40
41	dbrow_41
42	dbrow_42
43	dbrow_43
44	dbrow_44
45	dbrow_45
46	dbrow_46
47	dbrow_47
48	dbrow_48
49	dbrow_49
50	dbrow_50
51	dbrow_51
52	dbrow_52
53	dbrow_53
54	dbrow_54
55	dbrow_55
56	dbrow_56
57	dbrow_57
58	dbrow_58
59	dbrow_59
60	dbrow_60
61	dbrow_61
62	dbrow_62
63	dbrow_63
64	dbrow_64
65	dbrow_65
66	dbrow_66
67	dbrow_67
68	dbrow_68
69	dbrow_69
70	dbrow_70
71	dbrow_71
72	dbrow_72
73	dbrow_73
74	dbrow_74
75	dbrow_75
76	dbrow_76
77	dbrow_77
78	dbrow_78
79	dbrow_79
80	dbrow_80
81	dbrow_81
82	dbrow_82
83	dbrow_83
84	dbrow_84
85	dbrow_85
86	dbrow_86
87	dbrow_87
88	dbrow_88
89	dbrow_89
90	dbrow_90
91	dbrow_91
92	dbrow_92
93	dbrow_93
94	dbrow_94
95	dbrow_95
96	dbrow_96
97	dbrow_97
98	dbrow_98
99	dbrow_99
100	dbrow_100
101	dbrow_101
102	dbrow_102
103	dbrow_103
104	dbrow_104
105	dbrow_105
106	dbrow_106
107	dbrow_107
108	dbrow_108
109	dbrow_109
110	dbrow_110
111	dbrow_111
112	dbrow_112
113	dbrow_113
114	dbrow_114
115	dbrow_115
116	dbrow_116
117	dbrow_117
118	dbrow_118
119	dbrow_119
120	dbrow_120
121	dbrow_121
122	dbrow_122
123	dbrow_123
124	dbrow_124
125	dbrow_125
126	dbrow_126
127	dbrow_127
128	dbrow_128
129	dbrow_129
130	dbrow_130
131	dbrow_131
132	dbrow_132
133	dbrow_133
134	dbrow_134
135	dbrow_135
136	dbrow_136
137	dbrow_137
138	dbrow_138
139	dbrow_139
140	dbrow_140
141	dbrow_141
142	dbrow_142
143	dbrow_143
144	dbrow_144
145	dbrow_145
146	dbrow_146
147	dbrow_147
148	dbrow_148
149	dbrow_149
150	dbrow_150
151	dbrow_151
152	dbrow_152
153	dbrow_153
154	dbrow_154
155	dbrow_155
156	dbrow_156
157	dbrow_157
158	dbrow_158
159	dbrow_159
160	dbrow_160
161	dbrow_161
162	dbrow_162
163	dbrow_163
164	dbrow_164
165	dbrow_165
166	dbrow_166
167	dbrow_167
168	dbrow_168
169	dbrow_169
170	dbrow_170
171	dbrow_171
172	dbrow_172
173	dbrow_173
180	dbrow_180
181	dbrow_181
182	dbrow_182
183	dbrow_183
184	dbrow_184
684	dbrow_684
910	dbrow_910
1026	dbrow_1026
1037	dbrow_1037
1206	dbrow_1206
1472	dbrow_1472
1494	dbrow_1494
1514	dbrow_1514
2186	dbrow_2186
2297	dbrow_2297
2299	dbrow_2299
2306	dbrow_2306
2307	dbrow_2307
2308	dbrow_2308
2309	dbrow_2309
2310	dbrow_2310
2311	dbrow_2311
2312	dbrow_2312
2313	dbrow_2313
2314	dbrow_2314
2315	dbrow_2315
2316	dbrow_2316
2320	dbrow_2320
2321	dbrow_2321
2322	dbrow_2322
2323	dbrow_2323
2324	dbrow_2324
2338	dbrow_2338
2343	dbrow_2343
2466	dbrow_2466
2485	dbrow_2485
2486	dbrow_2486
3250	dbrow_3250
3353	dbrow_3353
3417	dbrow_3417
3418	dbrow_3418
3425	dbrow_3425
3426	dbrow_3426
3427	dbrow_3427
3428	dbrow_3428
3429	dbrow_3429
3430	dbrow_3430
3450	dbrow_3450
3451	dbrow_3451
3466	dbrow_3466
3467	dbrow_3467
3512	dbrow_3512
3513	dbrow_3513
3514	dbrow_3514
3515	dbrow_3515
3545	dbrow_3545
3710	dbrow_3710
3711	dbrow_3711
3712	dbrow_3712
3713	dbrow_3713
3747	dbrow_3747
3748	dbrow_3748
3749	dbrow_3749
3784	dbrow_3784
3785	dbrow_3785
3786	dbrow_3786
3787	dbrow_3787
3936	dbrow_3936
3937	dbrow_3937
3974	dbrow_3974
3975	dbrow_3975
3977	dbrow_3977
3980	dbrow_3980
3983	dbrow_3983
3986	dbrow_3986
3989	dbrow_3989
3997	dbrow_3997
4092	dbrow_4092
4093	dbrow_4093
4094	dbrow_4094
4095	dbrow_4095
4096	dbrow_4096
