6	dwarf_multicannon_6
544	broken_fence_544
2231	rocks_2231
3522	bridge_3522
3748	rocks_3748
3803	rocks_3803
3804	rocks_3804
3931	log_balance_3931
3932	log_balance_3932
3933	log_balance_3933
4551	basalt_rock_4551
4552	basalt_rock_4552
4553	basalt_rock_4553
4554	basalt_rock_4554
4555	basalt_rock_4555
4556	basalt_rock_4556
4557	basalt_rock_4557
4558	basalt_rock_4558
5948	stepping_stone_5948
5949	stepping_stone_5949
7527	stile_7527
9092	bar_dispenser_multi_9092
9100	conveyor_belt_9100
9103	drive_belt_9103
9105	cogs_9105
9117	pipes_9117
9121	pipes_9121
9739	crevice_9739
9740	crevice_9740
10047	dark_tunnel_10047
10663	stepping_stone_10663
11768	stepping_stone_11768
12982	stile_12982
13504	stepping_stone_13504
14435	loc_14435
14917	stepping_stone_14917
14918	stepping_stone_14918
16115	rock_16115
16464	rocks_16464
16465	crevice_16465
16466	stepping_stone_16466
16468	tight_gap_16468
16509	obstacle_pipe_16509
16510	strange_floor_16510
16511	obstacle_pipe_16511
16513	stepping_stone_16513
16514	rocks_16514
16515	rocks_16515
16518	fence_16518
16519	castle_wall_16519
16520	hole_16520
16521	rocks_16521
16522	rocks_16522
16523	rocks_16523
16524	rocks_16524
16525	weathered_wall_16525
16526	weathered_wall_16526
16527	underwall_tunnel_16527
16528	underwall_tunnel_16528
16529	underwall_tunnel_16529
16530	underwall_tunnel_16530
16533	stepping_stone_16533
16534	rocks_16534
16535	rocks_16535
16537	spikey_chain_16537
16538	spikey_chain_16538
16539	crevice_16539
16540	log_balance_16540
16542	log_balance_16542
16543	crevice_16543
16544	strange_floor_16544
16545	rocks_16545
16546	log_balance_16546
16548	log_balance_16548
16549	rocks_16549
16550	rocks_16550
16552	ornate_railing_16552
16998	rocks_16998
16999	rocks_16999
17000	ornate_railing_17000
17002	jutting_wall_17002
17042	rocks_17042
17043	rocks_17043
17047	wall_17047
17048	wall_17048
17049	wall_17049
17050	wall_17050
17051	wall_17051
17052	wall_17052
17062	crossbow_tree_17062
17063	crossbow_tree_17063
17068	broken_raft_17068
17074	strong_tree_17074
19032	underwall_tunnel_19032
19036	underwall_tunnel_19036
19040	stepping_stone_19040
19042	stepping_stone_19042
19043	crevice_19043
19849	rocks_19849
21727	pipe_21727
21728	pipe_21728
21738	stepping_stone_21738
21739	stepping_stone_21739
23140	obstacle_pipe_23140
23274	log_balance_23274
23548	balancing_ledge_23548
23563	pile_of_rubble_23563
23564	pile_of_rubble_23564
23566	monkeybars_23566
23567	monkeybars_23567
23568	ropeswing_23568
23569	ropeswing_23569
24222	crumbling_wall_24222
25526	door_25526
25527	door_25527
26371	rope_multi_26371
26375	rope_multi_26375
26382	little_crack_26382
26405	rocky_handholds_26405
26561	rock_multi_26561
26562	rock_multi_26562
26880	vine_26880
26882	vine_26882
26884	blighted_vine_multi_26884
26886	blighted_vine_multi_26886
27984	rocks_27984
27985	rocks_27985
27987	rocks_27987
27988	rocks_27988
27990	boulder_27990
28849	loose_railing_28849
28892	crack_28892
28893	stone_28893
29024	inconspicuous_crate_elite_multi_29024
29032	inconspicuous_rocks_elite_multi_29032
29033	inconspicuous_hole_elite_multi_29033
29035	inconspicuous_rocks_elite_multi_29035
29040	inconspicuous_hole_master_multi_29040
29057	inconspicuous_crate_master_multi_29057
29060	inconspicuous_bush_master_multi_29060
29326	gap_29326
29728	stepping_stone_29728
29729	stepping_stone_29729
29730	stepping_stone_29730
30174	tunnel_30174
30175	tunnel_30175
30519	rock_30519
30520	mushroom_30520
30521	rock_30521
30522	rock_30522
30523	driftwood_30523
30532	tunnel_30532
30533	muddy_patch_30533
30534	mushroom_30534
30535	smelly_mushroom_30535
30536	muddy_patch_30536
30537	seaweed_30537
30539	mushroom_30539
30540	smelly_mushroom_30540
30541	smelly_mushroom_30541
30542	seaweed_30542
30543	muddy_patch_30543
30544	muddy_patch_30544
30545	smelly_mushroom_30545
30546	muddy_patch_30546
30547	muddy_patch_30547
30549	muddy_patch_30549
30550	seaweed_30550
30551	seaweed_30551
30916	rope_anchor_30916
30917	rope_anchor_30917
31303	footprints_multi_31303
31304	footprints_multi_31304
31305	footprints_multi_31305
31306	footprints_multi_31306
31307	footprints_multi_31307
31308	footprints_multi_31308
31309	footprints_multi_31309
31310	footprints_multi_31310
31311	footprints_multi_31311
31312	footprints_multi_31312
31313	footprints_multi_31313
31314	footprints_multi_31314
31315	footprints_multi_31315
31316	footprints_multi_31316
31317	footprints_multi_31317
31318	footprints_multi_31318
31319	footprints_multi_31319
31320	footprints_multi_31320
31321	footprints_multi_31321
31322	footprints_multi_31322
31323	footprints_multi_31323
31324	footprints_multi_31324
31325	footprints_multi_31325
31326	footprints_multi_31326
31327	footprints_multi_31327
31328	footprints_multi_31328
31329	footprints_multi_31329
31330	footprints_multi_31330
31331	footprints_multi_31331
31332	footprints_multi_31332
31333	footprints_multi_31333
31334	footprints_multi_31334
31335	footprints_multi_31335
31336	footprints_multi_31336
31337	footprints_multi_31337
31338	footprints_multi_31338
31339	footprints_multi_31339
31340	footprints_multi_31340
31341	footprints_multi_31341
31342	footprints_multi_31342
31343	footprints_multi_31343
31344	footprints_multi_31344
31345	footprints_multi_31345
31346	footprints_multi_31346
31347	footprints_multi_31347
31348	footprints_multi_31348
31349	footprints_multi_31349
31350	footprints_multi_31350
31351	footprints_multi_31351
31352	footprints_multi_31352
31353	footprints_multi_31353
31354	footprints_multi_31354
31355	footprints_multi_31355
31356	footprints_multi_31356
31357	footprints_multi_31357
31358	footprints_multi_31358
31359	footprints_multi_31359
31360	footprints_multi_31360
31361	footprints_multi_31361
31362	footprints_multi_31362
31363	footprints_multi_31363
31364	footprints_multi_31364
31365	footprints_multi_31365
31366	footprints_multi_31366
31367	footprints_multi_31367
31368	footprints_multi_31368
31369	footprints_multi_31369
31370	footprints_multi_31370
31371	footprints_multi_31371
31372	footprints_multi_31372
31373	footprints_multi_31373
31374	footprints_multi_31374
31479	muddy_patch_31479
31480	muddy_patch_31480
31481	hole_31481
31482	hole_31482
31561	pillar_31561
31757	rocks_31757
31758	rocks_31758
31759	rocks_31759
31809	pillar_31809
31849	rocks_multi_31849
31852	rocks_multi_31852
33344	broken_wall_33344
33348	big_window_33348
34396	rocks_34396
34397	rocks_34397
34655	mysterious_pipe_34655
34741	rocks_34741
34834	strange_floor_34834
36692	tight_gap_36692
36693	tight_gap_36693
36694	tight_gap_36694
36695	tight_gap_36695
39541	wall_multi_39541
39542	wall_multi_39542
40355	crumbling_wall_40355
40356	rocks_40356
40960	rocks_multi_40960
40962	rope_multi_40962
42506	tunnel_42506
42507	tunnel_42507
43027	dwarf_multicannon_43027
43724	rubble_43724
43726	rubble_43726
43989	stepping_stone_43989
43990	stepping_stone_43990
47570	rocks_47570
47571	rocks_47571
51931	rocks_51931
53234	rocks_53234
53236	rocks_53236
53237	stepping_stone_53237
53238	rocks_53238
53240	rocks_53240
53241	stepping_stone_53241
53242	crevice_53242
53250	tunnel_53250
53251	tunnel_53251
53252	rocks_53252
53254	rocks_53254
53255	climbing_rocks_53255
53256	dry_stone_wall_53256
53258	crevice_53258
53259	crevice_53259
54775	rocks_54775
54776	rocks_54776
