0	varcint0	int
1	varcint1	int
2	varcint2	int
3	varcint3	int
4	varcint4	int
5	varcint5	int
6	varcint6	boolean
7	varcint7	int
8	varcint8	int
9	varcint9	int
10	varcint10	int
11	varcint11	int
12	varcint12	int
13	varcint13	int
14	varcint14	int
15	varcint15	int
16	varcint16	int
17	varcint17	int
18	varcint18	int
19	varcint19	int
20	varcint20	int
21	varcint21	int
22	varcint22	int
23	varcint23	int
24	varcint24	int
25	varcint25	int
26	varcint26	int
27	varcint27	int
28	varcint28	int
29	varcint29	int
30	varcint30	int
31	varcint31	int
32	varcint32	int
33	varcint33	int
34	varcint34	int
35	varcint35	int
36	varcint36	int
37	varcint37	int
38	varcint38	int
39	varcint39	int
40	varcint40	int
41	varcint41	int
42	varcint42	int
43	varcint43	int
44	varcint44	int
45	varcint45	int
46	varcint46	int
47	varcint47	int
48	varcint48	int
49	varcint49	int
50	varcint50	int
51	varcint51	int
52	varcint52	int
53	varcint53	boolean
54	varcint54	int
55	varcint55	int
56	varcint56	int
57	varcint57	int
58	varcint58	int
59	varcint59	int
60	varcint60	int
61	varcint61	int
62	varcint62	int
63	varcint63	int
64	varcint64	int
65	varcint65	int
66	varcint66	int
67	varcint67	int
69	varcint69	int
70	varcint70	int
71	varcint71	int
72	varcint72	stat
73	varcint73	int
74	varcint74	int
75	varcint75	int
76	varcint76	int
77	varcint77	int
78	varcint78	int
80	varcint80	int
81	varcint81	int
82	varcint82	int
83	varcint83	int
84	varcint84	int
85	varcint85	int
86	varcint86	int
87	varcint87	int
88	varcint88	int
89	varcint89	int
90	varcint90	int
91	varcint91	int
92	varcint92	int
93	varcint93	int
94	varcint94	int
95	varcint95	int
96	varcint96	int
97	varcint97	int
98	varcint98	int
99	varcint99	int
100	varcint100	int
101	varcint101	int
102	varcint102	int
103	varcint103	int
104	varcint104	int
105	varcint105	int
106	varcint106	int
107	varcint107	int
108	varcint108	int
109	varcint109	int
110	varcint110	int
111	varcint111	int
112	varcint112	int
113	varcint113	int
114	varcint114	int
115	varcint115	int
116	varcint116	int
117	varcint117	int
118	varcint118	int
119	varcint119	int
120	varcint120	int
121	varcint121	int
122	varcint122	int
123	varcint123	int
124	varcint124	int
125	varcint125	int
126	varcint126	int
127	varcint127	int
128	varcint128	int
129	varcint129	int
130	varcint130	int
131	varcint131	int
132	varcint132	int
133	varcint133	int
134	varcint134	int
135	varcint135	int
136	varcint136	int
137	varcint137	int
138	varcint138	int
139	varcint139	int
140	varcint140	boolean
141	varcint141	int
142	varcint142	int
143	varcint143	int
144	varcint144	int
145	varcint145	int
146	varcint146	int
147	varcint147	int
148	varcint148	int
149	varcint149	int
150	varcint150	int
151	varcint151	int
152	varcint152	int
153	varcint153	int
154	varcint154	int
155	varcint155	int
156	varcint156	int
157	varcint157	int
158	varcint158	int
159	varcint159	int
160	varcint160	int
161	varcint161	int
162	varcint162	int
163	varcint163	int
164	varcint164	int
165	varcint165	int
166	varcint166	int
167	varcint167	int
168	varcint168	int
169	varcint169	int
170	varcint170	int
171	varcint171	int
172	varcint172	int
173	varcint173	int
174	varcint174	int
175	varcint175	int
176	varcint176	int
177	varcint177	int
178	varcint178	int
179	varcint179	int
180	varcint180	int
181	varcint181	int
182	varcint182	int
183	varcint183	int
184	varcint184	int
185	varcint185	int
186	varcint186	int
187	varcint187	int
188	varcint188	coord
189	varcint189	coord
190	varcint190	int
191	varcint191	int
192	varcint192	int
193	varcint193	int
194	varcint194	int
196	varcint196	int
197	varcint197	int
198	varcint198	int
199	varcint199	int
200	varcint200	int
201	varcint201	int
202	varcint202	int
203	varcint203	int
204	varcint204	int
205	varcint205	int
206	varcint206	int
207	varcint207	int
208	varcint208	int
209	varcint209	int
210	varcint210	int
211	varcint211	int
212	varcint212	int
213	varcint213	int
214	varcint214	boolean
215	varcint215	int
216	varcint216	int
217	varcint217	int
218	varcint218	component
219	varcint219	int
220	varcint220	int
221	varcint221	int
222	varcint222	int
223	varcint223	int
224	varcint224	int
225	varcint225	obj
226	varcint226	boolean
227	varcint227	int
228	varcint228	boolean
230	varcstring230	string
231	varcstring231	string
232	varcstring232	string
233	varcstring233	string
234	varcstring234	string
235	varcstring235	string
236	varcstring236	string
237	varcstring237	string
238	varcstring238	string
239	varcstring239	string
240	varcstring240	string
241	varcstring241	string
242	varcstring242	string
243	varcstring243	string
244	varcstring244	string
245	varcstring245	string
246	varcstring246	string
247	varcstring247	string
248	varcstring248	string
249	varcstring249	string
250	varcstring250	string
251	varcstring251	string
252	varcstring252	string
253	varcstring253	string
254	varcstring254	string
255	varcstring255	string
256	varcstring256	string
257	varcstring257	string
258	varcstring258	string
259	varcstring259	string
260	varcstring260	string
261	varcstring261	string
262	varcstring262	string
263	varcstring263	string
264	varcstring264	string
265	varcstring265	string
266	varcstring266	string
267	varcstring267	string
268	varcstring268	string
269	varcstring269	string
270	varcstring270	string
271	varcstring271	string
272	varcstring272	string
273	varcstring273	string
274	varcstring274	string
275	varcstring275	string
276	varcstring276	string
277	varcstring277	string
278	varcstring278	string
279	varcstring279	string
280	varcstring280	string
281	varcstring281	string
282	varcstring282	string
283	varcstring283	string
284	varcstring284	string
285	varcstring285	string
286	varcstring286	string
287	varcstring287	string
288	varcstring288	string
289	varcstring289	string
290	varcstring290	string
291	varcstring291	string
292	varcstring292	string
293	varcstring293	string
294	varcstring294	string
295	varcstring295	string
296	varcstring296	string
297	varcstring297	string
298	varcstring298	string
299	varcstring299	string
300	varcstring300	string
301	varcstring301	string
302	varcstring302	string
303	varcstring303	string
304	varcstring304	string
305	varcstring305	string
306	varcstring306	string
307	varcstring307	string
308	varcstring308	string
309	varcstring309	string
310	varcstring310	string
311	varcstring311	string
312	varcstring312	string
313	varcstring313	string
314	varcstring314	string
315	varcstring315	string
316	varcstring316	string
317	varcstring317	string
318	varcstring318	string
319	varcstring319	string
320	varcstring320	string
321	varcstring321	string
322	varcstring322	string
323	varcstring323	string
324	varcstring324	string
325	varcstring325	string
326	varcstring326	string
327	varcstring327	string
328	varcstring328	string
329	varcstring329	string
330	varcstring330	string
331	varcstring331	string
332	varcstring332	string
333	varcstring333	string
334	varcstring334	string
335	varcstring335	string
336	varcstring336	string
337	varcstring337	string
338	varcstring338	string
339	varcstring339	string
340	varcstring340	string
341	varcstring341	string
342	varcstring342	string
343	varcstring343	string
344	varcstring344	string
345	varcstring345	string
346	varcstring346	string
347	varcstring347	string
348	varcstring348	string
349	varcstring349	string
350	varcstring350	string
351	varcstring351	string
352	varcstring352	string
353	varcstring353	string
354	varcstring354	string
355	varcstring355	string
356	varcstring356	string
357	varcstring357	string
358	varcstring358	string
359	varcstring359	string
360	varcstring360	string
361	varcstring361	string
362	varcstring362	string
363	varcstring363	string
364	varcstring364	string
370	varcstring370	string
371	varcstring371	string
372	varcstring372	string
373	varcstring373	string
374	varcint374	int
375	varcint375	int
376	varcint376	int
377	varcint377	int
378	varcint378	int
379	varcint379	int
380	varcint380	int
381	varcint381	int
382	varcint382	int
383	varcint383	int
384	varcint384	int
385	varcint385	int
386	varcint386	boolean
387	varcstring387	string
388	varcstring388	string
389	varcint389	int
390	varcint390	int
391	varcint391	int
392	varcint392	int
393	varcint393	obj
394	varcint394	int
395	varcint395	int
396	varcint396	int
397	varcint397	int
398	varcint398	int
399	varcint399	int
400	varcint400	int
401	varcint401	coord
403	varcint403	int
404	varcint404	int
405	varcint405	int
406	varcint406	int
407	varcint407	int
408	varcint408	int
409	varcint409	int
410	varcint410	int
411	varcint411	int
412	varcint412	int
413	varcint413	int
414	varcint414	int
415	varcint415	int
416	varcstring416	string
417	varcstring417	string
418	varcint418	int
419	varcint419	int
420	varcint420	int
421	varcint421	int
422	varcint422	int
423	varcint423	int
424	varcint424	int
425	varcint425	int
426	varcint426	int
427	varcint427	int
428	varcint428	int
429	varcint429	int
430	varcint430	int
431	varcint431	int
432	varcint432	int
433	varcint433	int
434	varcint434	int
435	varcint435	boolean
436	varcstring436	string
437	varcstring437	string
438	varcint438	int
439	varcint439	int
440	varcint440	int
441	varcint441	int
442	varcint442	int
443	varcint443	int
444	varcint444	int
445	varcint445	int
446	varcint446	int
447	varcint447	int
448	varcint448	int
449	varcint449	int
450	varcint450	int
451	varcint451	int
452	varcint452	int
453	varcint453	int
454	varcint454	int
455	varcint455	int
456	varcstring456	string
457	varcstring457	string
458	varcstring458	string
459	varcint459	int
460	varcint460	int
461	varcint461	int
462	varcint462	int
463	varcint463	int
464	varcint464	int
465	varcint465	int
466	varcint466	int
467	varcint467	int
468	varcint468	int
469	varcint469	int
470	varcint470	int
471	varcint471	int
472	varcint472	int
473	varcint473	int
474	varcint474	int
475	varcint475	int
476	varcint476	int
477	varcint477	int
478	varcint478	int
479	varcint479	int
480	varcint480	int
481	varcint481	int
482	varcint482	int
483	varcint483	int
484	varcint484	int
485	varcint485	int
486	varcint486	int
487	varcint487	int
488	varcint488	int
489	varcint489	int
490	varcint490	component
491	varcint491	int
492	varcint492	int
493	varcint493	int
494	varcint494	int
495	varcint495	int
496	varcstring496	string
497	varcint497	int
498	varcstring498	string
499	varcint499	int
500	varcstring500	string
501	varcint501	int
502	varcstring502	string
503	varcint503	int
504	varcstring504	string
505	varcint505	int
506	varcstring506	string
507	varcint507	int
508	varcstring508	string
509	varcint509	int
510	varcstring510	string
511	varcint511	int
512	varcstring512	string
513	varcint513	int
514	varcstring514	string
515	varcint515	int
516	varcint516	int
517	varcint517	int
518	varcint518	int
519	varcint519	int
520	varcint520	int
521	varcint521	int
522	varcint522	int
523	varcint523	int
524	varcint524	int
525	varcint525	int
526	varcint526	int
527	varcstring527	string
528	varcint528	int
529	varcint529	int
530	varcint530	int
531	varcint531	int
532	varcint532	int
533	varcint533	int
534	varcint534	int
535	varcint535	int
536	varcint536	int
537	varcint537	int
538	varcint538	int
539	varcint539	int
540	varcint540	int
541	varcstring541	string
542	varcint542	int
543	varcstring543	string
544	varcint544	int
545	varcstring545	string
546	varcint546	int
547	varcstring547	string
548	varcint548	int
549	varcstring549	string
550	varcint550	int
551	varcint551	int
552	varcint552	int
553	varcint553	npc_uid
554	varcint554	int
555	varcint555	loc
556	varcint556	coord
557	varcint557	obj
558	varcint558	coord
559	varcstring559	string
560	varcint560	int
561	varcint561	int
562	varcint562	int
563	varcint563	int
564	varcstring564	string
565	varcint565	int
566	varcint566	int
567	varcint567	int
568	varcint568	int
569	varcint569	int
570	varcint570	int
571	varcint571	int
572	varcint572	int
573	varcint573	int
574	varcint574	int
575	varcint575	int
576	varcint576	int
577	varcint577	int
578	varcint578	int
579	varcint579	int
580	varcint580	int
581	varcint581	int
582	varcint582	int
583	varcint583	int
584	varcint584	int
585	varcint585	int
586	varcint586	int
587	varcint587	int
588	varcint588	int
589	varcint589	int
590	varcint590	int
591	varcint591	int
592	varcint592	int
593	varcint593	int
594	varcint594	int
595	varcint595	int
596	varcint596	int
597	varcint597	int
598	varcint598	int
599	varcint599	int
600	varcint600	int
601	varcint601	int
602	varcint602	int
603	varcint603	int
604	varcint604	int
605	varcint605	int
606	varcint606	int
607	varcint607	int
608	varcint608	int
609	varcint609	int
610	varcint610	int
611	varcint611	int
612	varcint612	int
613	varcint613	int
614	varcint614	int
615	varcint615	int
616	varcint616	int
617	varcint617	int
618	varcint618	int
619	varcint619	int
620	varcint620	int
621	varcint621	int
622	varcint622	int
623	varcint623	int
624	varcint624	int
625	varcint625	int
626	varcint626	int
627	varcint627	int
628	varcint628	int
629	varcint629	int
630	varcint630	int
631	varcint631	int
632	varcint632	int
633	varcint633	int
634	varcint634	int
635	varcint635	int
636	varcint636	int
637	varcint637	int
638	varcint638	int
639	varcint639	int
640	varcint640	int
641	varcint641	int
642	varcint642	int
643	varcint643	int
644	varcint644	int
645	varcint645	int
646	varcint646	int
647	varcint647	int
648	varcint648	int
649	varcint649	int
650	varcint650	int
651	varcint651	int
652	varcint652	int
653	varcint653	int
654	varcint654	int
655	varcint655	int
656	varcint656	int
657	varcint657	int
658	varcint658	int
659	varcint659	int
660	varcint660	int
661	varcint661	int
662	varcint662	int
663	varcint663	int
664	varcint664	int
665	varcint665	int
666	varcint666	int
667	varcint667	int
668	varcint668	int
669	varcint669	int
670	varcint670	int
671	varcint671	int
672	varcint672	int
673	varcint673	int
674	varcint674	int
675	varcint675	int
676	varcint676	int
677	varcint677	int
678	varcint678	int
679	varcint679	int
680	varcint680	int
681	varcint681	int
682	varcint682	int
683	varcint683	int
684	varcint684	int
685	varcint685	int
686	varcint686	int
687	varcint687	int
688	varcint688	int
689	varcint689	int
690	varcint690	int
691	varcint691	int
692	varcint692	int
693	varcint693	int
694	varcint694	int
695	varcint695	int
696	varcint696	int
697	varcint697	int
698	varcint698	int
699	varcint699	int
700	varcint700	int
701	varcint701	int
702	varcint702	int
703	varcint703	int
704	varcint704	int
705	varcint705	int
706	varcint706	int
707	varcint707	int
708	varcint708	int
709	varcint709	int
710	varcint710	int
711	varcint711	int
712	varcint712	int
713	varcint713	int
714	varcint714	int
715	varcint715	int
716	varcint716	int
717	varcint717	int
718	varcint718	int
719	varcint719	int
720	varcint720	int
721	varcint721	int
722	varcint722	int
723	varcint723	int
724	varcint724	int
725	varcint725	int
726	varcint726	int
727	varcint727	int
728	varcint728	int
729	varcint729	int
730	varcint730	int
731	varcint731	int
732	varcint732	int
733	varcint733	int
734	varcint734	int
735	varcint735	int
736	varcint736	int
737	varcint737	int
738	varcint738	int
739	varcint739	int
740	varcint740	int
741	varcint741	int
742	varcint742	int
743	varcint743	int
744	varcint744	int
745	varcint745	int
746	varcint746	int
747	varcint747	int
748	varcint748	int
749	varcint749	int
750	varcint750	int
751	varcint751	int
752	varcint752	int
753	varcint753	int
754	varcint754	int
755	varcint755	int
756	varcint756	int
757	varcint757	int
758	varcint758	int
759	varcint759	int
760	varcint760	int
761	varcint761	int
762	varcint762	int
763	varcint763	int
764	varcint764	int
765	varcint765	int
766	varcint766	int
767	varcint767	int
768	varcint768	int
769	varcint769	int
770	varcint770	int
771	varcint771	int
772	varcint772	int
773	varcint773	int
774	varcint774	int
775	varcint775	int
776	varcint776	int
777	varcint777	int
778	varcint778	int
779	varcint779	int
780	varcint780	int
781	varcint781	int
782	varcint782	int
783	varcint783	int
784	varcint784	int
785	varcint785	int
786	varcint786	int
787	varcint787	int
788	varcint788	int
789	varcint789	int
790	varcint790	int
791	varcint791	int
792	varcint792	int
793	varcint793	int
794	varcint794	int
795	varcint795	int
796	varcint796	int
797	varcint797	int
798	varcint798	int
799	varcint799	int
800	varcint800	int
801	varcint801	int
802	varcint802	int
803	varcint803	int
804	varcint804	int
805	varcint805	int
806	varcint806	int
807	varcint807	int
808	varcint808	int
809	varcint809	int
810	varcint810	int
811	varcint811	int
812	varcint812	int
813	varcint813	int
814	varcint814	int
815	varcint815	int
816	varcint816	int
817	varcint817	int
818	varcint818	int
819	varcint819	int
820	varcint820	int
821	varcint821	int
822	varcint822	int
823	varcint823	int
824	varcint824	int
825	varcint825	int
826	varcint826	int
827	varcint827	int
828	varcint828	int
829	varcint829	int
830	varcint830	int
831	varcint831	int
832	varcint832	int
833	varcint833	int
834	varcint834	int
835	varcint835	int
836	varcint836	int
837	varcint837	int
838	varcint838	int
839	varcint839	int
840	varcint840	int
841	varcint841	int
842	varcint842	int
843	varcint843	int
844	varcint844	int
845	varcint845	int
846	varcint846	int
847	varcint847	int
848	varcint848	int
849	varcint849	int
850	varcint850	int
851	varcint851	int
852	varcint852	int
853	varcint853	int
854	varcint854	int
855	varcint855	int
856	varcint856	int
857	varcint857	int
858	varcint858	int
859	varcint859	int
860	varcint860	int
861	varcint861	int
862	varcint862	int
863	varcint863	int
864	varcint864	int
865	varcint865	int
866	varcint866	int
867	varcint867	int
868	varcint868	int
869	varcint869	int
870	varcint870	int
871	varcint871	int
872	varcint872	int
873	varcint873	int
874	varcint874	int
875	varcint875	int
876	varcint876	int
877	varcint877	int
878	varcint878	int
879	varcint879	int
880	varcint880	int
881	varcint881	int
882	varcint882	int
883	varcint883	int
884	varcint884	int
885	varcint885	int
886	varcint886	int
887	varcint887	int
888	varcint888	int
889	varcint889	int
890	varcint890	int
891	varcint891	int
892	varcint892	int
893	varcint893	int
894	varcint894	int
895	varcint895	int
896	varcint896	int
897	varcint897	int
898	varcint898	int
899	varcint899	int
900	varcint900	int
901	varcint901	int
902	varcint902	int
903	varcint903	int
904	varcint904	int
905	varcint905	int
906	varcint906	int
907	varcint907	int
908	varcint908	int
909	varcint909	int
910	varcint910	int
911	varcint911	int
912	varcint912	int
913	varcint913	int
914	varcint914	int
915	varcint915	int
916	varcint916	int
917	varcint917	int
918	varcint918	int
919	varcint919	int
920	varcint920	int
921	varcint921	int
922	varcint922	int
923	varcint923	int
924	varcint924	int
925	varcint925	int
926	varcint926	int
927	varcint927	int
928	varcint928	int
929	varcint929	int
930	varcint930	int
931	varcint931	int
932	varcint932	int
933	varcint933	int
934	varcint934	int
935	varcint935	int
936	varcint936	int
937	varcint937	int
938	varcint938	int
939	varcint939	int
940	varcint940	int
941	varcint941	int
942	varcint942	int
943	varcint943	int
944	varcstring944	string
945	varcint945	int
946	varcint946	int
947	varcint947	int
948	varcint948	int
949	varcint949	int
950	varcint950	int
951	varcint951	int
952	varcint952	int
953	varcint953	int
954	varcint954	int
955	varcint955	int
956	varcint956	int
957	varcint957	int
958	varcint958	int
959	varcint959	int
960	varcint960	int
961	varcint961	int
962	varcint962	int
963	varcint963	int
964	varcint964	int
965	varcint965	int
966	varcint966	int
967	varcint967	int
968	varcint968	int
969	varcint969	int
970	varcint970	int
971	varcint971	int
972	varcint972	int
973	varcint973	npc_uid
974	varcint974	int
975	varcint975	loc
976	varcint976	coord
977	varcint977	obj
978	varcint978	coord
979	varcstring979	string
980	varcint980	int
981	varcint981	int
982	varcint982	int
983	varcint983	int
984	varcint984	int
985	varcint985	int
986	varcint986	int
987	varcint987	int
988	varcint988	int
989	varcint989	int
990	varcint990	int
991	varcint991	int
992	varcint992	int
993	varcint993	int
994	varcint994	int
995	varcint995	int
996	varcint996	int
997	varcint997	int
998	varcint998	int
999	varcint999	int
1000	varcstring1000	string
1001	varcint1001	int
1002	varcint1002	int
1003	varcstring1003	string
1004	varcint1004	int
1005	varcint1005	int
1006	varcint1006	int
1007	varcint1007	int
1008	varcint1008	dbrow
1009	varcint1009	int
1010	varcint1010	int
1011	varcint1011	int
1012	varcint1012	int
1013	varcint1013	int
1014	varcstring1014	string
1015	varcstring1015	string
1016	varcint1016	int
1017	varcint1017	int
1018	varcint1018	int
1019	varcstring1019	string
1020	varcint1020	int
1021	varcstring1021	string
1022	varcint1022	int
1023	varcstring1023	string
1024	varcint1024	int
1025	varcstring1025	string
1026	varcint1026	int
1027	varcstring1027	string
1028	varcint1028	int
1029	varcstring1029	string
1030	varcint1030	int
1031	varcstring1031	string
1032	varcint1032	int
1033	varcstring1033	string
1034	varcint1034	int
1035	varcstring1035	string
1036	varcint1036	int
1037	varcstring1037	string
1038	varcint1038	int
1039	varcstring1039	string
1040	varcint1040	int
1041	varcstring1041	string
1042	varcint1042	int
1043	varcstring1043	string
1044	varcint1044	int
1045	varcstring1045	string
1046	varcint1046	int
1047	varcstring1047	string
1048	varcint1048	int
1049	varcstring1049	string
1050	varcint1050	int
1051	varcstring1051	string
1052	varcint1052	int
1053	varcstring1053	string
1054	varcint1054	int
1055	varcstring1055	string
1056	varcint1056	int
1057	varcstring1057	string
1058	varcint1058	int
1059	varcstring1059	string
1060	varcint1060	int
1061	varcstring1061	string
1062	varcint1062	int
1063	varcstring1063	string
1064	varcint1064	int
1065	varcstring1065	string
1066	varcint1066	int
1067	varcstring1067	string
1068	varcint1068	int
1069	varcstring1069	string
1070	varcint1070	int
1071	varcstring1071	string
1072	varcint1072	int
1073	varcstring1073	string
1074	varcint1074	int
1075	varcstring1075	string
1076	varcint1076	int
1077	varcstring1077	string
1078	varcint1078	coord
1079	varcint1079	int
1080	varcint1080	int
1081	varcint1081	int
1082	varcint1082	int
1083	varcint1083	int
1084	varcint1084	int
1085	varcint1085	int
1086	varcint1086	int
1087	varcint1087	int
1088	varcint1088	int
1089	varcint1089	int
1090	varcint1090	int
1091	varcint1091	int
1092	varcint1092	int
1093	varcint1093	int
1094	varcint1094	int
1095	varcint1095	int
1096	varcint1096	int
1097	varcint1097	int
1098	varcint1098	int
1099	varcstring1099	string
1100	varcstring1100	string
1101	varcstring1101	string
1102	varcstring1102	string
1103	varcstring1103	string
1104	varcstring1104	string
1105	varcstring1105	string
1106	varcstring1106	string
1107	varcint1107	component
1108	varcint1108	int
1109	varcint1109	component
1110	varcint1110	int
1111	varcint1111	int
1112	varcint1112	int
1113	varcint1113	int
1114	varcint1114	int
1115	varcint1115	int
1116	varcint1116	int
1117	varcint1117	int
1118	varcint1118	int
1119	varcint1119	int
1120	varcint1120	int
1121	varcint1121	int
1122	varcint1122	int
1123	varcint1123	int
1124	varcint1124	int
1125	varcint1125	int
1126	varcint1126	int
1127	varcint1127	int
1128	varcint1128	int
1129	varcint1129	int
1130	varcint1130	int
1131	varcint1131	int
1132	varcint1132	int
1133	varcint1133	int
1134	varcint1134	int
1135	varcint1135	int
1136	varcint1136	int
1137	varcint1137	int
1138	varcint1138	int
1139	varcint1139	int
1140	varcint1140	int
1141	varcint1141	int
1142	varcint1142	int
1143	varcint1143	int
1144	varcint1144	int
1145	varcint1145	int
1146	varcint1146	int
1147	varcint1147	int
1148	varcint1148	int
1149	varcint1149	int
1150	varcint1150	int
1151	varcint1151	int
1152	varcint1152	int
1153	varcint1153	int
1154	varcint1154	int
1157	varcint1157	int
1158	varcint1158	int
1159	varcint1159	int
1160	varcint1160	int
1161	varcint1161	int
1162	varcint1162	int
1163	varcint1163	int
1164	varcint1164	int
1165	varcint1165	int
1166	varcint1166	int
1167	varcstring1167	string
1168	varcint1168	int
1169	varcint1169	int
1170	varcint1170	int
1171	varcint1171	int
1172	varcint1172	int
1173	varcint1173	int
1174	varcint1174	int
1175	varcint1175	int
1176	varcint1176	int
1177	varcint1177	int
1178	varcint1178	int
1179	varcint1179	int
1180	varcstring1180	string
1181	varcint1181	int
1182	varcint1182	int
1183	varcint1183	int
1184	varcint1184	int
1185	varcint1185	int
1186	varcint1186	int
1187	varcint1187	int
1188	varcint1188	int
1189	varcint1189	int
1190	varcint1190	int
1191	varcint1191	int
1192	varcint1192	int
1193	varcint1193	int
1194	varcint1194	int
1195	varcint1195	int
1196	varcint1196	int
1197	varcint1197	int
1198	varcint1198	int
1199	varcint1199	int
1200	varcint1200	int
1201	varcint1201	obj
1202	varcint1202	int
1203	varcint1203	int
1204	varcint1204	int
1205	varcint1205	int
1206	varcint1206	int
1208	varcint1208	int
1209	varcint1209	int
1210	varcint1210	int
1211	varcint1211	int
1212	varcint1212	int
1213	varcint1213	int
1214	varcint1214	int
1215	varcint1215	int
1216	varcint1216	int
1217	varcint1217	int
1218	varcint1218	int
1219	varcint1219	int
1220	varcint1220	int
1221	varcint1221	int
1222	varcint1222	int
1223	varcint1223	int
1224	varcint1224	int
1225	varcint1225	int
1226	varcint1226	int
1227	varcint1227	int
1228	varcint1228	int
1229	varcint1229	int
1230	varcint1230	int
1231	varcint1231	component
1232	varcint1232	int
1233	varcstring1233	string
1234	varcint1234	int
1235	varcint1235	int
1236	varcint1236	int
1237	varcint1237	int
1238	varcint1238	int
1239	varcint1239	int
1240	varcint1240	int
